{
  "Trigger": {
    "init": "loading"
  },
  "TimeStamp": {
    "Day": "Thursday",
    "Month": "April",
    "Date": 4,
    "Year": 2019,
    "Time": "12:42:15:735",
    "TimeZone": "UTC-2"
  },
  "DOMState": "loading",
  "DOM": {
    "type": "HTML"
  },
  "SessionStorage": {},
  "LocalStorage": {
    "loglevel:webpack-dev-server": "INFO"
  }
}